operation,implementation,size,0,time
pull-down,pthread,5,49.4,0.001
pull-down,openmp,5,2.4,0.0038
pull-down,sequential,5,0.6,0
pull-down,pthread,7,51.58,0.0014
pull-down,openmp,7,2.11,0.0058
pull-down,sequential,7,0.6,0
pull-down,pthread,9,54.01,0.0028
pull-down,openmp,9,1.97,0.0082
pull-down,sequential,9,0.66,0
pull-down,pthread,11,52.61,0.0046
pull-down,openmp,11,1.99,0.0101
pull-down,sequential,11,0.66,0
pull-down,pthread,13,53.29,0.0059
pull-down,openmp,13,2.48,0.0115
pull-down,sequential,13,0.66,0
pull-down,pthread,15,54.25,0.0043
pull-down,openmp,15,2.5,0.0155
pull-down,sequential,15,0.71,0
pull-down,pthread,17,54.4,0.011
pull-down,openmp,17,3.32,0.0207
pull-down,sequential,17,0.85,0.0001
pull-down,pthread,19,53.5,0.0081
pull-down,openmp,19,6.89,0.0327
pull-down,sequential,19,0.82,0.0002
pull-down,pthread,21,52.84,0.0139
pull-down,openmp,21,10.71,0.0591
pull-down,sequential,21,0.98,0.0017
pull-down,pthread,23,51.39,0.0182
pull-down,openmp,23,14.69,0.1625
pull-down,sequential,23,0.99,0.0079
pull-down,pthread,25,49.76,0.024
pull-down,openmp,25,25.4,0.5961
pull-down,sequential,25,0.99,0.0303
pull-down,pthread,27,49.55,0.0355
pull-down,openmp,27,35.91,2.8582
pull-down,sequential,27,0.99,0.1013
pull-down,pthread,29,57.64,0.0665
pull-down,openmp,29,45.14,10.3886
pull-down,sequential,29,0.99,0.4078
operation,implementation,size,0,time
pull-up,pthread,5,54.18,0.0015
pull-up,openmp,5,2.84,0.0047
pull-up,sequential,5,0.4,0
pull-up,pthread,7,55.57,0.0023
pull-up,openmp,7,2.82,0.0063
pull-up,sequential,7,0.6,0
pull-up,pthread,9,56.06,0.0041
pull-up,openmp,9,2.84,0.0083
pull-up,sequential,9,0.6,0
pull-up,pthread,11,56.31,0.0029
pull-up,openmp,11,2.86,0.0098
pull-up,sequential,11,0.6,0
pull-up,pthread,13,55.9,0.0062
pull-up,openmp,13,2.92,0.0111
pull-up,sequential,13,0.71,0
pull-up,pthread,15,57.5,0.008
pull-up,openmp,15,2.68,0.0135
pull-up,sequential,15,0.77,0
pull-up,pthread,17,55.52,0.0106
pull-up,openmp,17,2.4,0.0168
pull-up,sequential,17,0.72,0.0002
pull-up,pthread,19,54.51,0.0127
pull-up,openmp,19,2.61,0.0191
pull-up,sequential,19,0.94,0.0011
pull-up,pthread,21,54.18,0.016
pull-up,openmp,21,2.6,0.0247
pull-up,sequential,21,0.98,0.0046
pull-up,pthread,23,51.55,0.0224
pull-up,openmp,23,2.17,0.0411
pull-up,sequential,23,0.99,0.0206
pull-up,pthread,25,53.04,0.0509
pull-up,openmp,25,1.67,0.108
pull-up,sequential,25,0.99,0.0821
pull-up,pthread,27,52.51,0.1512
pull-up,openmp,27,1.44,0.3201
pull-up,sequential,27,0.99,0.3054
pull-up,pthread,29,51.67,0.3
pull-up,openmp,29,1.36,1.1964
pull-up,sequential,29,0.99,1.187
operation,implementation,size,0,time
shift,pthread,5,48.66,0.0007
shift,openmp,5,2.11,0.0008
shift,sequential,5,0.5,0
shift,pthread,7,52.98,0.0016
shift,openmp,7,2.95,0.0006
shift,sequential,7,0.6,0
shift,pthread,9,53.45,0.0015
shift,openmp,9,2.84,0.0006
shift,sequential,9,0.6,0
shift,pthread,11,50.78,0.0008
shift,openmp,11,2.73,0.0006
shift,sequential,11,0.8,0
shift,pthread,13,56.24,0.003
shift,openmp,13,2.3,0.0007
shift,sequential,13,0.66,0
shift,pthread,15,55.61,0.0032
shift,openmp,15,2.3,0.0006
shift,sequential,15,0.77,0
shift,pthread,17,40.43,0.0043
shift,openmp,17,2.32,0.0007
shift,sequential,17,0.85,0.0002
shift,pthread,19,54.16,0.0035
shift,openmp,19,1.35,0.0021
shift,sequential,19,0.93,0.0011
shift,pthread,21,46.64,0.0047
shift,openmp,21,1.77,0.005
shift,sequential,21,0.97,0.0046
shift,pthread,23,55.12,0.0062
shift,openmp,23,2.41,0.0107
shift,sequential,23,0.99,0.0211
shift,pthread,25,55.42,0.0139
shift,openmp,25,2.84,0.0418
shift,sequential,25,0.99,0.0832
shift,pthread,27,57.3,0.0443
shift,openmp,27,2.3,0.1796
shift,sequential,27,0.99,0.2921
shift,pthread,29,59.8,0.1777
shift,openmp,29,2.17,0.6157
shift,sequential,29,0.99,1.0038
