digraph {
	graph [fontname=Arial, nodesep=0.125, ranksep=0.25];
	node [fontcolor=white, fontname=Arial, height=0, shape=box, style=filled, width=0];
	edge [fontname=Arial];
	1 [color="#ff0000", fontcolor="#ffffff", fontsize="10.00", label="test_random_search(char**, unsigned long)\n100.00%\n(0.00%)"];
	1 -> 2 [arrowsize="0.83", color="#99d007", fontcolor="#99d007", fontsize="10.00", label="68.19%\n1×", labeldistance="2.73", penwidth="2.73"];
	1 -> 4 [arrowsize="0.56", color="#0b9d75", fontcolor="#0b9d75", fontsize="10.00", label="31.81%\n1×", labeldistance="1.27", penwidth="1.27"];
	2 [color="#99d007", fontcolor="#ffffff", fontsize="10.00", label="avl_random_search(avl_bf*, int, int, int)\n68.19%\n(0.00%)\n1×"];
	2 -> 3 [arrowsize="0.82", color="#98cf07", fontcolor="#98cf07", fontsize="10.00", label="68.06%\n524288×", labeldistance="2.72", penwidth="2.72"];
	3 [color="#98cf07", fontcolor="#ffffff", fontsize="10.00", label="virt_to_phys_user(unsigned long*, int, unsigned long)\n68.06%\n(68.06%)\n21878834×"];
	3 -> 3 [arrowsize="0.82", color="#98cf07", fontcolor="#98cf07", fontsize="10.00", label="21354546×", labeldistance="2.72", penwidth="2.72"];
	4 [color="#0b9d75", fontcolor="#ffffff", fontsize="10.00", label="avl_random_fill(avl_bf*, int, int, int)\n31.81%\n(0.38%)\n1×"];
	4 -> 5 [arrowsize="0.56", color="#0c9c78", fontcolor="#0c9c78", fontsize="10.00", label="31.18%\n1048576×", labeldistance="1.25", penwidth="1.25"];
	5 [color="#0c9c78", fontcolor="#ffffff", fontsize="10.00", label="avl_insert(int, avl_bf*)\n31.18%\n(25.86%)\n1048576×"];
	5 -> 6 [arrowsize="0.35", color="#0d1976", fontcolor="#0d1976", fontsize="10.00", label="2.84%\n336648×", labeldistance="0.50", penwidth="0.50"];
	5 -> 7 [arrowsize="0.35", color="#0d1776", fontcolor="#0d1776", fontsize="10.00", label="2.48%\n401432×", labeldistance="0.50", penwidth="0.50"];
	6 [color="#0d1976", fontcolor="#ffffff", fontsize="10.00", label="_right_rotate(int, avl_bf*)\n2.84%\n(0.76%)\n336648×"];
	6 -> 8 [arrowsize="0.35", color="#0d1174", fontcolor="#0d1174", fontsize="10.00", label="1.04%\n673296×", labeldistance="0.50", penwidth="0.50"];
	6 -> 9 [arrowsize="0.35", color="#0d1074", fontcolor="#0d1074", fontsize="10.00", label="0.69%\n673296×", labeldistance="0.50", penwidth="0.50"];
	6 -> 10 [arrowsize="0.35", color="#0d0e73", fontcolor="#0d0e73", fontsize="10.00", label="0.35%\n673296×", labeldistance="0.50", penwidth="0.50"];
	7 [color="#0d1776", fontcolor="#ffffff", fontsize="10.00", label="_left_rotate(int, avl_bf*)\n2.48%\n(0.00%)\n401432×"];
	7 -> 8 [arrowsize="0.35", color="#0d1274", fontcolor="#0d1274", fontsize="10.00", label="1.24%\n802864×", labeldistance="0.50", penwidth="0.50"];
	7 -> 9 [arrowsize="0.35", color="#0d1074", fontcolor="#0d1074", fontsize="10.00", label="0.83%\n802864×", labeldistance="0.50", penwidth="0.50"];
	7 -> 10 [arrowsize="0.35", color="#0d0e73", fontcolor="#0d0e73", fontsize="10.00", label="0.41%\n802864×", labeldistance="0.50", penwidth="0.50"];
	8 [color="#0d1676", fontcolor="#ffffff", fontsize="10.00", label="_shift(int, int*, unsigned long, int)\n2.28%\n(2.28%)\n1476160×"];
	9 [color="#0d1375", fontcolor="#ffffff", fontsize="10.00", label="_push_down(int, int*, unsigned long, int)\n1.52%\n(1.52%)\n1476160×"];
	10 [color="#0d1074", fontcolor="#ffffff", fontsize="10.00", label="_pull_up(int, int*, unsigned long)\n0.76%\n(0.76%)\n1476160×"];
}
